<?xml version="1.0"?>
<svg width="163" height="163" xmlns="http://www.w3.org/2000/svg">
 <style type="text/css">.st0{fill:#333333;}
	.st1{fill:#4D4D4D;}
	.st2{fill:#F2F2F2;}
	.st3{fill:none;stroke:#4D4D4D;stroke-width:6.2497;stroke-linecap:round;stroke-linejoin:round;stroke-miterlimit:10;}
	.st4{fill:none;stroke:#4D4D4D;stroke-width:7;stroke-linecap:round;stroke-linejoin:round;stroke-miterlimit:10;}
	.st5{fill:#CCCCCC;}
	.st6{fill:#8CC63F;}
	.st7{fill:#EFD51F;stroke:#4D4D4D;stroke-width:3.7788;stroke-miterlimit:10;}
	.st8{fill:none;stroke:#4D4D4D;stroke-width:3.7788;stroke-miterlimit:10;}
	.st9{fill:none;stroke:#F2F2F2;stroke-width:12.4747;stroke-miterlimit:10;}
	.st10{fill:#8CC63F;stroke:#FFFFFF;stroke-width:1.022;stroke-miterlimit:10;}
	.st11{fill:#E6E6E6;}
	.st12{fill:#FBB03B;stroke:#FFFFFF;stroke-width:1.022;stroke-miterlimit:10;}
	.st13{fill:#FFFFFF;}
	.st14{fill:none;stroke:#FFFFFF;stroke-width:0.8672;stroke-miterlimit:10;}
	.st15{fill:url(#SVGID_1_);stroke:#FFFFFF;stroke-width:2;stroke-miterlimit:10;}
	.st16{fill:#9BA5B0;}
	.st17{fill:#C1CCD9;}
	.st18{fill:none;stroke:#4D4D4D;stroke-width:2.9066;stroke-miterlimit:10;}
	.st19{fill:url(#SVGID_2_);stroke:#FFFFFF;stroke-width:1.022;stroke-miterlimit:10;}
	.st20{fill:url(#SVGID_3_);}
	.st21{opacity:0.5;}
	.st22{fill:#FBB03B;}
	.st23{fill:none;stroke:#808080;stroke-miterlimit:10;}
	.st24{fill:#F7931E;}
	.st25{fill:#C6CCCC;stroke:#FFFFFF;stroke-width:2;stroke-miterlimit:10;}
	.st26{fill:url(#SVGID_4_);}
	.st27{fill:url(#SVGID_5_);}
	.st28{fill:url(#SVGID_6_);}
	.st29{fill:url(#SVGID_7_);}
	.st30{fill:url(#SVGID_8_);}
	.st31{fill:url(#SVGID_9_);}</style>

 <g>
  <title>background</title>
  <rect fill="none" id="canvas_background" height="165" width="165" y="-1" x="-1"/>
 </g>
 <g>
  <title>Layer 1</title>
  <g stroke="null" id="svg_4">
   <path stroke="null" id="svg_3" d="m117.899994,149.601746c0,3.721741 -1.254669,6.885239 -3.764008,9.490417c-2.509354,2.605225 -5.556396,3.907837 -9.141174,3.907837c-3.584778,0 -6.631851,-1.302612 -9.230804,-3.907837c-2.509338,-2.605179 -3.764008,-5.768677 -3.764008,-9.490417c0,-2.884369 0.806564,-5.489578 2.419724,-7.815643c1.613144,-2.326096 3.674393,-3.907822 6.183731,-4.931335c-0.896194,-1.116501 -1.344299,-2.419113 -1.344299,-4.000854c-2.061234,-0.558243 -3.674377,-1.767838 -4.839432,-3.721741c-1.165054,-1.953918 -1.702774,-4.373047 -1.702774,-7.257401l0,-12.374771l24.55571,0l0,12.374771c0,6.326965 -2.240494,9.955673 -6.811066,10.886093l0,0.093048c-0.089615,1.581741 -0.53772,2.884354 -1.433914,3.907806c2.598953,0.93045 4.749832,2.512207 6.362976,4.838303c1.613144,2.326065 2.509338,5.024307 2.509338,8.001724zm-1.613159,0.093018l-2.778198,-1.86087l1.882019,-2.79129l-3.226318,-0.558258l0.716965,-3.349548l-3.226303,0.744339l-0.537704,-3.349594l-2.688583,1.953918l-1.792389,-2.884338l-1.702774,2.977371l-2.688583,-2.046951l-0.44809,3.442627l-3.315918,-0.837372l0.896194,3.349548l-3.405533,0.558258l2.061249,2.79129l-2.957443,1.767853l2.957443,1.767822l-2.061249,2.79129l3.315918,0.46524l-0.80658,3.442566l3.226303,-0.837372l0.537704,3.535675l2.688583,-2.139999l1.792389,2.977371l1.702774,-2.884338l2.688583,2.046967l0.537704,-3.442642l3.226303,0.744339l-0.716965,-3.349518l3.226318,-0.558289l-1.882019,-2.79129l2.778198,-1.674805zm-7.16954,-16.747833c-0.627335,0.093048 -1.254684,0.093048 -1.971634,0.093048l-5.735641,0c-0.26886,0 -0.627335,0 -0.896194,0c0.08963,1.488708 0.53772,2.698273 1.433914,3.442627c0.985809,-0.279129 1.971634,-0.372162 3.047058,-0.372162c0.896194,0 1.792389,0.093033 2.688583,0.279114c0.80658,-0.744324 1.344299,-1.86087 1.433914,-3.442627zm-1.075424,-1.39563l0,-21.213928l-6.362976,0l0,21.213928l6.362976,0z" class="st23"/>
  </g>
  <g stroke="null" id="svg_2">
   <path stroke="null" id="svg_1" d="m70.899994,149.601746c0,3.721741 -1.254669,6.885239 -3.764015,9.490417c-2.509338,2.605225 -5.556393,3.907837 -9.141171,3.907837c-3.58477,0 -6.631844,-1.302612 -9.230797,-3.907837c-2.509346,-2.605179 -3.764011,-5.768677 -3.764011,-9.490417c0,-2.884369 0.806568,-5.489578 2.41972,-7.815643c1.613152,-2.326096 3.6744,-3.907822 6.183735,-4.931335c-0.896194,-1.116501 -1.344296,-2.419113 -1.344296,-4.000854c-2.061234,-0.558243 -3.674381,-1.767838 -4.839439,-3.721741c-1.165054,-1.953918 -1.70277,-4.373047 -1.70277,-7.257401l0,-12.374771l24.55571,0l0,12.374771c0,6.326965 -2.240486,9.955673 -6.811073,10.886093l0,0.093048c-0.089611,1.581741 -0.537712,2.884354 -1.433907,3.907806c2.598961,0.93045 4.749832,2.512207 6.362968,4.838303c1.613159,2.326065 2.509346,5.024307 2.509346,8.001724zm-1.613152,0.093018l-2.778206,-1.86087l1.882011,-2.79129l-3.226303,-0.558258l0.716957,-3.349548l-3.226299,0.744339l-0.537712,-3.349594l-2.688576,1.953918l-1.792389,-2.884338l-1.702778,2.977371l-2.688583,-2.046951l-0.448093,3.442627l-3.315914,-0.837372l0.896191,3.349548l-3.405533,0.558258l2.061245,2.79129l-2.957436,1.767853l2.957436,1.767822l-2.061245,2.79129l3.315922,0.46524l-0.80658,3.442566l3.226303,-0.837372l0.537704,3.535675l2.688583,-2.139999l1.792389,2.977371l1.702778,-2.884338l2.688576,2.046967l0.537712,-3.442642l3.226299,0.744339l-0.716957,-3.349518l3.226303,-0.558289l-1.882011,-2.79129l2.778206,-1.674805zm-7.169552,-16.747833c-0.627331,0.093048 -1.254677,0.093048 -1.971622,0.093048l-5.735649,0c-0.26886,0 -0.627331,0 -0.896191,0c0.089626,1.488708 0.53772,2.698273 1.433914,3.442627c0.985806,-0.279129 1.971622,-0.372162 3.047054,-0.372162c0.896194,0 1.792385,0.093033 2.68858,0.279114c0.806583,-0.744324 1.344303,-1.86087 1.433914,-3.442627zm-1.075428,-1.39563l0,-21.213928l-6.362965,0l0,21.213928l6.362965,0z" class="st23"/>
  </g>
 </g>
</svg>